^D:\FINAL\SRC- GALACTICOS\DEBUG\ENEMIGO.OBJ|D:\FINAL\SRC- GALACTICOS\DEBUG\EXPLOSION.OBJ|D:\FINAL\SRC- GALACTICOS\DEBUG\JUEGO.OBJ|D:\FINAL\SRC- GALACTICOS\DEBUG\NAVE.OBJ|D:\FINAL\SRC- GALACTICOS\DEBUG\PROYECTIL.OBJ|D:\FINAL\SRC- GALACTICOS\DEBUG\UTIL.OBJ
D:\FINAL\SRC- GALACTICOS\DEBUG\JUEGONAVES.ILK
D:\FINAL\SRC- GALACTICOS\DEBUG\JUEGONAVES.EXE
D:\FINAL\SRC- GALACTICOS\DEBUG\JUEGONAVES.PDB
^C:\USERS\822\DESKTOP\REPOSITORIO\STARSHIP\GALAGA\DEBUG\ENEMIGO.OBJ|C:\USERS\822\DESKTOP\REPOSITORIO\STARSHIP\GALAGA\DEBUG\EXPLOSION.OBJ|C:\USERS\822\DESKTOP\REPOSITORIO\STARSHIP\GALAGA\DEBUG\JUEGO.OBJ|C:\USERS\822\DESKTOP\REPOSITORIO\STARSHIP\GALAGA\DEBUG\NAVE.OBJ|C:\USERS\822\DESKTOP\REPOSITORIO\STARSHIP\GALAGA\DEBUG\PROYECTIL.OBJ|C:\USERS\822\DESKTOP\REPOSITORIO\STARSHIP\GALAGA\DEBUG\UTIL.OBJ
C:\USERS\822\DESKTOP\REPOSITORIO\STARSHIP\GALAGA\DEBUG\JUEGONAVES.ILK
C:\USERS\822\DESKTOP\REPOSITORIO\STARSHIP\GALAGA\DEBUG\JUEGONAVES.EXE
C:\USERS\822\DESKTOP\REPOSITORIO\STARSHIP\GALAGA\DEBUG\JUEGONAVES.PDB
